<?xml version="1.0" encoding="UTF-8" standalone="no"?>
<!DOCTYPE svg PUBLIC "-//W3C//DTD SVG 1.1//EN"
"http://www.w3.org/Graphics/SVG/1.1/DTD/svg11.dtd">


<!-- Page 1 -->
<svg x="0" y="0" width="1533" height="1749" viewBox="0 0 1533 1749" version="1.1" xmlns="http://www.w3.org/2000/svg" xmlns:xlink="http://www.w3.org/1999/xlink"
style="display: block;margin-left: auto;margin-right: auto;">
<defs>

<style type="text/css"><![CDATA[

.g0_1{
fill: #121418;
}
.g1_1{
fill: #35BFC1;
}
.g2_1{
fill: #38BFC1;
}

]]></style>

</defs>
<path d="M0,0
L0,1749
L1533,1749
L1533,0 Z " 
fill="#FFFFFF" stroke="none" />
<path d="M766.5,130c-76.3,0,-150.3,14.9,-220.1,44.4C479,202.9,418.6,243.7,366.7,295.6C314.8,347.5,274,408,245.5,475.3C216,545.1,201,619.1,201,695.4c0,76.4,15,150.4,44.5,220.2c28.5,67.3,69.3,127.8,121.2,179.7c51.9,51.9,112.3,92.7,179.7,121.2c69.8,29.5,143.8,44.4,220.1,44.4c76.3,0,150.4,-14.9,220.2,-44.4c67.3,-28.5,127.8,-69.3,179.7,-121.2c51.9,-51.9,92.7,-112.4,121.2,-179.7C1317.1,845.8,1332,771.8,1332,695.4c0,-76.3,-14.9,-150.3,-44.4,-220.1C1259.1,408,1218.3,347.5,1166.4,295.6C1114.5,243.7,1054,202.9,986.7,174.4C916.9,144.9,842.8,130,766.5,130m0,76.3c270.2,0,489.1,219,489.1,489.1c0,270.2,-218.9,489.2,-489.1,489.2c-270.1,0,-489.1,-219,-489.1,-489.2c0,-270.1,219,-489.1,489.1,-489.1Z" class="g0_1" />
<path d="M767.2,247c-60.6,0,-119.3,11.8,-174.7,35.3C539.1,304.9,491.1,337.2,450,378.4c-41.2,41.1,-73.6,89.1,-96.2,142.5c-23.4,55.4,-35.2,114.2,-35.2,174.7c0,60.5,11.8,119.3,35.2,174.6c22.6,53.5,55,101.4,96.2,142.6c41.1,41.2,89.1,73.5,142.5,96.1c55.4,23.4,114.1,35.3,174.7,35.3c60.5,0,119.3,-11.9,174.6,-35.3c53.5,-22.6,101.4,-54.9,142.6,-96.1c41.2,-41.2,73.5,-89.1,96.1,-142.6c23.4,-55.3,35.3,-114.1,35.3,-174.6c0,-60.5,-11.9,-119.3,-35.3,-174.7c-22.6,-53.4,-54.9,-101.4,-96.1,-142.5C1043.2,337.2,995.3,304.9,941.8,282.3C886.5,258.8,827.7,247,767.2,247m0,76.4c205.6,0,372.2,166.6,372.2,372.2c0,205.6,-166.6,372.2,-372.2,372.2C561.6,1067.8,394.9,901.2,394.9,695.6C394.9,490,561.6,323.4,767.2,323.4Z" class="g1_1" />
<path d="M1004.8,901.6c-5.5,0,-11,-1.9,-15.4,-5.9L766.1,694.2L543.5,895.7c-9.4,8.5,-23.9,7.8,-32.4,-1.6c-8.5,-9.4,-7.8,-23.9,1.6,-32.4l238,-215.4c8.7,-7.9,22,-7.9,30.7,0l238.7,215.4c9.4,8.5,10.2,23,1.7,32.4c-4.5,5,-10.8,7.5,-17,7.5Z" class="g2_1" />
<path d="M887,1064.5H645c-8.8,0,-16.1,-7.2,-16.1,-16.1V904.3L766,779.6L903.1,904.3v144.1c0,8.9,-7.2,16.1,-16.1,16.1Z" class="g2_1" />
<path d="M651.8,1041.6H880.2V914.4L766,810.6L651.8,914.4ZM887,1087.4H645c-21.5,0,-39,-17.5,-39,-39V904.3c0,-6.5,2.7,-12.6,7.5,-17L750.6,762.6c8.7,-7.9,22.1,-7.9,30.8,0L918.6,887.3c4.7,4.4,7.5,10.5,7.5,17v144.1c0,21.5,-17.6,39,-39.1,39Z" class="g2_1" />
<path d="M115.3,1452c0,-5.1,-1.7,-8.9,-5,-11.6c-3.3,-2.7,-9.2,-5.6,-17.9,-8.6c-17.5,-5.7,-30.5,-11.7,-39,-18.2c-8.5,-6.4,-12.8,-15.7,-12.8,-27.8c0,-11.8,5,-21.4,14.8,-28.7c9.9,-7.3,22.5,-10.9,37.8,-10.9c16.1,0,29,3.7,38.9,11.3c9.8,7.5,14.5,18.1,14.2,31.8l-.2,.6H114.3c0,-6.7,-1.8,-11.5,-5.4,-14.5c-3.6,-3,-9.1,-4.5,-16.4,-4.5c-6,0,-10.6,1.5,-14.1,4.4c-3.4,2.9,-5.1,6.5,-5.1,10.7c0,4.2,1.8,7.5,5.3,10c3.5,2.5,10.1,5.6,19.7,9.3c16.4,4.9,28.7,10.8,37.2,17.8c8.4,7,12.6,16.5,12.6,28.7c0,12.4,-4.9,22.1,-14.6,29.1c-9.7,7,-22.5,10.5,-38.6,10.5c-16,0,-29.5,-3.7,-40.6,-11.3c-11.1,-7.5,-16.4,-19.3,-16.1,-35.5l.2,-.6H70.3c0,8.2,2,14.1,6,17.5c4.1,3.5,10.3,5.2,18.6,5.2c6.9,0,12,-1.3,15.3,-4.1c3.4,-2.7,5.1,-6.2,5.1,-10.6Z" class="g0_1" />
<path d="M198.7,1415.8h21.1c7.1,0,12.6,-2,16.3,-5.9c3.8,-3.9,5.6,-8.9,5.6,-15c0,-6.3,-1.8,-11.5,-5.5,-15.5c-3.8,-4,-9.2,-6,-16.4,-6H198.7Zm0,25.2v48.4H165.9V1348.2h53.9c16.8,0,30.1,4.3,39.9,12.8c9.8,8.5,14.7,19.8,14.7,33.7c0,13.9,-4.9,25.1,-14.7,33.6c-9.8,8.5,-23.1,12.7,-39.9,12.7Z" class="g0_1" />
<path d="M375.1,1429H325.3v35.2H385v25.2H292.6V1348.2h92.5v25.2H325.3v30.4h49.8Z" class="g0_1" />
<path d="M485.9,1429H436.2v35.2h59.6v25.2H403.4V1348.2h92.5v25.2H436.2v30.4h49.7Z" class="g0_1" />
<path d="M547,1373.4v90.8h18.9c7.5,0,13.6,-3,18.4,-9.1c4.8,-6.1,7.2,-14,7.2,-23.6v-25.6c0,-9.5,-2.4,-17.3,-7.2,-23.4c-4.8,-6,-10.9,-9.1,-18.4,-9.1Zm-32.7,116V1348.2h51.6c16.7,0,30.6,5.4,41.7,16.3c11.2,10.8,16.8,24.7,16.8,41.6v25.4c0,17,-5.6,30.9,-16.8,41.7c-11.1,10.8,-25,16.2,-41.7,16.2Z" class="g0_1" />
<path d="M761.7,1489.4H729.1v-56.8H676.8v56.8H644V1348.2h32.8v59.2h52.3v-59.2h32.6Z" class="g2_1" />
<path d="M868.9,1405.9c0,-10.1,-2.4,-18.4,-7.1,-24.8c-4.8,-6.5,-11.5,-9.7,-20.2,-9.7c-8.8,0,-15.6,3.2,-20.3,9.6c-4.7,6.5,-7,14.8,-7,24.9v25.6c0,10.2,2.4,18.6,7.1,25c4.8,6.5,11.6,9.7,20.4,9.7c8.6,0,15.3,-3.2,20,-9.7c4.7,-6.4,7.1,-14.8,7.1,-25Zm32.7,25.6c0,17.4,-5.5,31.7,-16.6,43c-11,11.3,-25.4,16.9,-43.2,16.9c-17.9,0,-32.4,-5.6,-43.5,-16.9c-11.1,-11.3,-16.7,-25.6,-16.7,-43v-25.4c0,-17.3,5.6,-31.6,16.6,-43c11.1,-11.3,25.6,-16.9,43.4,-16.9c17.8,0,32.2,5.6,43.3,16.9c11.1,11.4,16.7,25.7,16.7,43Z" class="g2_1" />
<path d="M1037.3,1348.2v91.6c0,16.1,-5.4,28.8,-16.1,37.9c-10.8,9.2,-24.8,13.7,-42,13.7c-17.4,0,-31.5,-4.5,-42.3,-13.7c-10.8,-9.1,-16.2,-21.8,-16.2,-37.9v-91.6h32.9v91.6c0,8.7,2.2,15.3,6.7,19.7c4.6,4.5,10.8,6.7,18.9,6.7c7.9,0,14.1,-2.2,18.5,-6.6c4.5,-4.4,6.7,-11.1,6.7,-19.8v-91.6Z" class="g2_1" />
<path d="M1131.8,1452c0,-5.1,-1.6,-8.9,-4.9,-11.6c-3.3,-2.7,-9.3,-5.6,-18,-8.6c-17.5,-5.7,-30.5,-11.7,-39,-18.2c-8.5,-6.4,-12.8,-15.7,-12.8,-27.8c0,-11.8,5,-21.4,14.9,-28.7c9.9,-7.3,22.4,-10.9,37.7,-10.9c16.1,0,29.1,3.7,38.9,11.3c9.8,7.5,14.6,18.1,14.2,31.8l-.2,.6h-31.8c0,-6.7,-1.8,-11.5,-5.4,-14.5c-3.6,-3,-9.1,-4.5,-16.4,-4.5c-5.9,0,-10.6,1.5,-14,4.4c-3.5,2.9,-5.2,6.5,-5.2,10.7c0,4.2,1.8,7.5,5.3,10c3.5,2.5,10.1,5.6,19.7,9.3c16.4,4.9,28.8,10.8,37.2,17.8c8.4,7,12.6,16.5,12.6,28.7c0,12.4,-4.9,22.1,-14.6,29.1c-9.7,7,-22.5,10.5,-38.6,10.5c-15.9,0,-29.5,-3.7,-40.5,-11.3c-11.1,-7.5,-16.5,-19.3,-16.2,-35.5l.2,-.6h31.9c0,8.2,2,14.1,6.1,17.5c4,3.5,10.2,5.2,18.5,5.2c6.9,0,12,-1.3,15.4,-4.1c3.3,-2.7,5,-6.2,5,-10.6Z" class="g2_1" />
<path d="M1217.1,1489.4h-32.6V1348.2h32.6v141.2Z" class="g2_1" />
<path d="M1359.4,1489.4h-32.7L1275,1400.6l-.5,.2v88.6h-32.8V1348.2h32.8l51.7,88.7l.5,-.2v-88.5h32.7Z" class="g2_1" />
<path d="M1493.4,1469.9c-4.9,6,-11.8,11,-20.7,15.2c-8.9,4.2,-20.4,6.3,-34.4,6.3c-17.6,0,-31.8,-5.3,-42.7,-16.1c-10.9,-10.7,-16.4,-24.6,-16.4,-41.8v-29.4c0,-17,5.3,-30.9,15.9,-41.7c10.7,-10.8,24.4,-16.2,41.1,-16.2c18.1,0,31.7,4,40.9,12c9.2,8.1,13.7,19.1,13.3,33.1l-.2,.5h-30.7c0,-6.9,-1.8,-12,-5.5,-15.4c-3.7,-3.3,-9.3,-5,-16.7,-5c-7.6,0,-13.8,3,-18.4,9c-4.7,6,-7,13.8,-7,23.5v29.6c0,9.9,2.3,17.8,6.9,23.8c4.6,5.9,11.1,8.9,19.5,8.9c6,0,10.7,-.5,14.2,-1.4c3.4,-1,6.2,-2.3,8.2,-3.9v-25.2h-25.1V1414h57.8Z" class="g2_1" />
<path d="M242.7,1584.5h21.2v4.6H236.8v-43.4h5.9Z" class="g0_1" />
<path d="M290.3,1551.4l-3,10.3h-2.9v-16h5.9Z" class="g0_1" />
<path d="M324.9,1589.1H319v-43.4h5.9v43.4Z" class="g0_1" />
<path d="M375.5,1581h.2l13.9,-35.3h7.3v43.4H391v-32.6h-.1l-13.2,32.6h-4.1l-13.5,-33.7l-.2,.1v33.6H354v-43.4h7.7Z" class="g0_1" />
<path d="M447,1581h.1L461,1545.7h7.3v43.4h-5.9v-32.6h-.1l-13.2,32.6H445l-13.5,-33.7l-.2,.1v33.6h-5.9v-43.4h7.7Z" class="g0_1" />
<path d="M524.1,1563.5c0,-4,-1,-7.3,-3.2,-9.8c-2.1,-2.6,-5,-3.8,-8.6,-3.8c-3.5,0,-6.2,1.2,-8.2,3.8c-2.1,2.5,-3.1,5.8,-3.1,9.8v7.8c0,4,1,7.3,3.1,9.8c2,2.6,4.7,3.8,8.2,3.8c3.6,0,6.5,-1.2,8.6,-3.8c2.2,-2.5,3.2,-5.8,3.2,-9.8Zm5.9,7.8c0,5.3,-1.6,9.7,-4.9,13.2c-3.3,3.5,-7.6,5.2,-12.8,5.2c-5.1,0,-9.2,-1.7,-12.4,-5.2c-3.2,-3.5,-4.8,-7.9,-4.8,-13.2v-7.8c0,-5.3,1.6,-9.7,4.8,-13.2c3.2,-3.5,7.3,-5.3,12.4,-5.3c5.2,0,9.5,1.8,12.8,5.3c3.3,3.5,4.9,7.9,4.9,13.2Z" class="g0_1" />
<path d="M562.7,1568.7v15.8H574c2.7,0,4.8,-.7,6.3,-2c1.5,-1.3,2.2,-3.2,2.2,-5.6c0,-2.4,-.7,-4.3,-2.3,-5.8c-1.5,-1.5,-3.5,-2.3,-6.1,-2.4h-.4Zm0,-4.6h9.5c2.2,0,4,-.6,5.4,-1.8c1.3,-1.2,2,-2.9,2,-5c0,-2.4,-.7,-4.1,-2.2,-5.3c-1.5,-1.1,-3.6,-1.7,-6.4,-1.7h-8.3Zm-5.9,25v-43.4H571c4.5,0,8.1,.9,10.6,2.9c2.6,2,3.9,4.9,3.9,8.8c0,1.9,-.6,3.6,-1.7,5c-1.2,1.5,-2.7,2.7,-4.6,3.4c2.8,.4,5.1,1.7,6.7,3.7c1.7,2.1,2.5,4.5,2.5,7.3c0,4,-1.3,7.1,-3.9,9.2c-2.5,2.1,-6,3.1,-10.5,3.1Z" class="g0_1" />
<path d="M620.5,1589.1h-5.9v-43.4h5.9v43.4Z" class="g0_1" />
<path d="M655.5,1584.5h21.2v4.6H649.6v-43.4h5.9Z" class="g0_1" />
<path d="M708.1,1589.1h-6v-43.4h6v43.4Z" class="g0_1" />
<path d="M760.9,1569H743v15.5h20.9v4.6H737.2v-43.4h26.4v4.6H743v14h17.9Z" class="g0_1" />
<path d="M795.1,1565.6h8.4c3.3,0,5.7,-.6,7.2,-1.8c1.4,-1.3,2.1,-3.2,2.1,-5.8c0,-2.5,-.7,-4.4,-2.1,-5.7c-1.4,-1.3,-3.6,-2,-6.6,-2h-9Zm0,4.7v18.8h-5.9v-43.4h14.9c4.7,0,8.4,1,10.9,3.1c2.5,2.2,3.7,5.2,3.7,9.2c0,2.3,-.6,4.2,-1.7,5.9c-1.2,1.6,-2.9,2.9,-5.1,3.9c2.4,.8,4.1,2,5.1,3.8c1.1,1.7,1.6,3.9,1.6,6.4v4.1c0,1.4,.2,2.6,.5,3.7c.3,1,.8,1.9,1.5,2.6v.7h-6.1c-.7,-.7,-1.2,-1.7,-1.4,-3c-.3,-1.3,-.4,-2.6,-.4,-4v-4c0,-2.4,-.7,-4.2,-2,-5.7c-1.4,-1.4,-3.2,-2.1,-5.6,-2.1Z" class="g0_1" />
<path d="M886.5,1589.1h-6v-43.4h6v43.4Z" class="g0_1" />
<path d="M948.4,1589.1h-5.9l-20.9,-33.2l-.2,.1v33.1h-5.8v-43.4h5.8l21,33.1l.1,-.1v-33h5.9Z" class="g0_1" />
<path d="M1009.8,1589.1h-5.9L983,1555.9l-.2,.1v33.1h-5.9v-43.4h5.9l20.9,33.1l.2,-.1v-33h5.9Z" class="g0_1" />
<path d="M1065.6,1563.5c0,-4,-1.1,-7.3,-3.2,-9.8c-2.2,-2.6,-5.1,-3.8,-8.7,-3.8c-3.4,0,-6.1,1.2,-8.2,3.8c-2,2.5,-3,5.8,-3,9.8v7.8c0,4,1,7.3,3,9.8c2.1,2.6,4.8,3.8,8.2,3.8c3.6,0,6.5,-1.2,8.7,-3.8c2.1,-2.5,3.2,-5.8,3.2,-9.8Zm5.9,7.8c0,5.3,-1.7,9.7,-5,13.2c-3.3,3.5,-7.5,5.2,-12.8,5.2c-5.1,0,-9.2,-1.7,-12.4,-5.2c-3.1,-3.5,-4.7,-7.9,-4.7,-13.2v-7.8c0,-5.3,1.6,-9.7,4.7,-13.2c3.2,-3.5,7.3,-5.3,12.4,-5.3c5.3,0,9.5,1.8,12.8,5.3c3.3,3.5,5,7.9,5,13.2Z" class="g0_1" />
<path d="M1110.8,1577.7l1,3.6h.2l1,-3.6l11.2,-32h6.3l-16.1,43.4h-5.1l-16.1,-43.4h6.4Z" class="g0_1" />
<path d="M1160.1,1573h13l-6.3,-18.7h-.2Zm14.7,4.9h-16.4l-3.8,11.2h-6l15.6,-43.4h5.1l15.3,43.4h-6Z" class="g0_1" />
<path d="M1242.2,1589.1h-5.9l-20.9,-33.2l-.2,.1v33.1h-5.9v-43.4h5.9l20.9,33.1l.2,-.1v-33h5.9Z" class="g0_1" />
<path d="M1300.2,1550.3h-14.3v38.8H1280v-38.8h-14.1v-4.6h34.3Z" class="g0_1" />

</svg>
